module gitlab.com/33lesnika/indriver-delivery-api-client

go 1.19

require (
	github.com/go-faster/errors v0.6.1
	github.com/go-faster/jx v1.0.0
	github.com/google/uuid v1.3.0
	github.com/motemen/go-loghttp v0.0.0-20170804080138-974ac5ceac27
	github.com/ogen-go/ogen v0.61.0
	go.opentelemetry.io/otel v1.14.0
	go.opentelemetry.io/otel/metric v0.37.0
	go.opentelemetry.io/otel/trace v1.14.0
	go.uber.org/multierr v1.11.0
)

require (
	github.com/dlclark/regexp2 v1.8.1 // indirect
	github.com/fatih/color v1.15.0 // indirect
	github.com/ghodss/yaml v1.0.0 // indirect
	github.com/go-faster/yaml v0.4.3 // indirect
	github.com/go-logr/logr v1.2.4 // indirect
	github.com/go-logr/stdr v1.2.2 // indirect
	github.com/mattn/go-colorable v0.1.13 // indirect
	github.com/mattn/go-isatty v0.0.18 // indirect
	github.com/motemen/go-nuts v0.0.0-20220604134737-2658d0104f31 // indirect
	github.com/segmentio/asm v1.2.0 // indirect
	go.uber.org/atomic v1.10.0 // indirect
	go.uber.org/zap v1.24.0 // indirect
	golang.org/x/exp v0.0.0-20230321023759-10a507213a29 // indirect
	golang.org/x/net v0.8.0 // indirect
	golang.org/x/sync v0.1.0 // indirect
	golang.org/x/sys v0.6.0 // indirect
	golang.org/x/text v0.8.0 // indirect
	gopkg.in/yaml.v2 v2.4.0 // indirect
)
